%YAML 1.1
%TAG !u! tag:unity3d.com,2011:
--- !u!1045 &1
EditorBuildSettings:
  m_ObjectHideFlags: 0
  serializedVersion: 2
  m_Scenes:
  - enabled: 1
    path: Assets/Scenes/MainMenu.unity
    guid: 32ad9c9e3219d104e8ff0c9c6438b4c8
  - enabled: 1
    path: Assets/Scenes/Game.unity
    guid: df8803b3d83fde24181d197093ef48de
